<?xml version="1.0" encoding="utf-8"?>
<!-- Generator: Adobe Illustrator 22.0.0, SVG Export Plug-In . SVG Version: 6.00 Build 0)  -->
<svg version="1.1" id="Layer_1" xmlns="http://www.w3.org/2000/svg" xmlns:xlink="http://www.w3.org/1999/xlink" x="0px" y="0px"
	 viewBox="0 0 841.9 248.3" style="enable-background:new 0 0 841.9 248.3;" xml:space="preserve">
<style type="text/css">
	.st0{fill:#FFFFFF;}
</style>
<g>
	
		<image style="overflow:visible;opacity:0.5;enable-background:new    ;" width="962" height="343" xlink:href="DE4EEE9C49904BF9.png"  transform="matrix(1 0 0 1 -60 -60.72)">
	</image>
	<g>
		<path class="st0" d="M841.9,0H0.3v97.5c94,75.3,247.4,124.3,420.6,124.3c173.5,0,327.1-49.2,421-124.6h-0.1L841.9,0z"/>
	</g>
</g>
<title>Asset 3</title>
</svg>
