"firstName,lastName,mobile,email,dob,proxy,cardNo,idType,idNumber,driver_id"
"Devdas,Thampachan,7676088411,devdas@driveu.in,13-05-1986,000000742938,5386291400009732,Aadhar,947368767501,HMS-016"
"SHAMIM ,AHMAD,7703820020,shamim6443@gmail.com,01-01-1992,000000742939,5386291400009740,Aadhar,828576182624,6443"
"MANOJ KUMAR,SINGH,8178781464,manoj3811@gmail.com,08-12-1990,000000742940,5386291400009757,Aadhar,574010473163,3811"
"AJIT,KUMAR,7678161555,ajit4761@gmail.com,19-06-1986,000000742941,5386291400009765,Aadhar,276819925540,4761"
"SANJAY KUMAR,YADAV,7011005784,sanjay4785@gmail.com,16-09-1984,000000742942,5386291400009773,Aadhar,703105817538,4785"
"SONU ,MAURYA,9810981674,sonu5288@gmail.com,01-12-1983,000000742943,5386291400009781,Aadhar,270241481074,5288"
