firstName,lastName,mobile,email,dob,proxy,cardNo,idType,idNumber,driver_id
Ashok,Dhani,7190191838,koinaj@gmail.com,30-03-1993,742945,2455,aadhar,2.34E+08,123456
Abhijit,Dhoni,9820111010,dunoid12@gmail.com,30-03-1993,742947,1279,drivers_id,2.34E+12,6543212
