mobile,email,address1,address2,dob(yyyy-MM-dd),pinCode,documentUrl,documentUrl1,idType(aadhaar|pan|drivers_id|voters_id|passport),idNumber
7667789065,zxasqwoplku982@gmail.com,addressda sd98/,   Asd  8 %$3  ,1994-05-30,560088,https://cashiercorporatetest.s3.amazonaws.com/CorporateLogos/test/test_CorporateLogos1540447513528.png,https://cashiercorporatetest.s3.amazonaws.com/CorporateLogos/test/test_CorporateLogos1540447513528.png,aadhaar,231123456754
9008778909,fgcwerty9872@gmail.com,hdhasdu assd9 ,wf   wfdsadwefwefwefwefefewwefwefwefwe234$$$234234  ,1995-02-22,560034,https://cashiercorporatetest.s3.amazonaws.com/CorporateLogos/test/test_CorporateLogos1540447513528.png,https://cashiercorporatetest.s3.amazonaws.com/CorporateLogos/test/test_CorporateLogos1540447513528.png,aadhaar,887902213456
