{
    "tournamentId": {
        "id": 5815,
        "name": "ipl2017"
    },
    "schedule": [
        {
            "matchId": {
                "id": 5839,
                "name": "ipl2017-01"
            },
            "description": "Match 1",
            "matchDate": "2017-04-05T20:00:00+0530",
            "matchType": "IPLT20",
            "matchState": "U",
            "venue": {
                "id": 10,
                "fullName": "Rajiv Gandhi Intl. Cricket Stadium",
                "shortName": "Rajiv Gandhi Intl. Cricket Stadium",
                "city": "Hyderabad",
                "country": "India"
            },
            "team1": {
                "team": {
                    "id": 62,
                    "fullName": "Sunrisers Hyderabad",
                    "shortName": "Sunrisers",
                    "abbreviation": "SRH",
                    "primaryColor": "FF9C00",
                    "secondaryColor": "FFFFFF",
                    "type": "m",
                    "typeString": "m"
                }
            },
            "team2": {
                "team": {
                    "id": 9,
                    "fullName": "Royal Challengers Bangalore",
                    "shortName": "Challengers",
                    "abbreviation": "RCB",
                    "primaryColor": "D33F46",
                    "secondaryColor": "FFFFFF",
                    "type": "m",
                    "typeString": "m"
                }
            },
            "groupName": ""
        },
        {
            "matchId": {
                "id": 5840,
                "name": "ipl2017-02"
            },
            "description": "Match 2",
            "matchDate": "2017-04-06T20:00:00+0530",
            "matchType": "IPLT20",
            "matchState": "U",
            "venue": {
                "id": 7,
                "fullName": "Maharashtra Cricket Association's International Stadium",
                "shortName": "Maharashtra Cricket Association's International Stadium",
                "city": "Pune",
                "country": "India"
            },
            "team1": {
                "team": {
                    "id": 434,
                    "fullName": "Rising Pune Supergiant",
                    "shortName": "Supergiant",
                    "abbreviation": "RPS",
                    "primaryColor": "FFC0CB",
                    "secondaryColor": "AA3355",
                    "type": "m",
                    "typeString": "m"
                }
            },
            "team2": {
                "team": {
                    "id": 6,
                    "fullName": "Mumbai Indians",
                    "shortName": "Mumbai",
                    "abbreviation": "MI",
                    "primaryColor": "00AEEF",
                    "secondaryColor": "FFFFFF",
                    "type": "m",
                    "typeString": "m"
                }
            },
            "groupName": ""
        },
        {
            "matchId": {
                "id": 5841,
                "name": "ipl2017-03"
            },
            "description": "Match 3",
            "matchDate": "2017-04-07T20:00:00+0530",
            "matchType": "IPLT20",
            "matchState": "U",
            "venue": {
                "id": 44,
                "fullName": "Saurashtra Cricket Association Stadium",
                "shortName": "Saurashtra Cricket Association Stadium",
                "city": "Rajkot",
                "country": "India"
            },
            "team1": {
                "team": {
                    "id": 433,
                    "fullName": "Gujarat Lions",
                    "shortName": "Gujarat Lions",
                    "abbreviation": "GL",
                    "primaryColor": "E5BA0F",
                    "secondaryColor": "383838",
                    "type": "m",
                    "typeString": "m"
                }
            },
            "team2": {
                "team": {
                    "id": 5,
                    "fullName": "Kolkata Knight Riders",
                    "shortName": "Knight Riders",
                    "abbreviation": "KKR",
                    "primaryColor": "6F2C91",
                    "secondaryColor": "FFFFFF",
                    "type": "m",
                    "typeString": "m"
                }
            },
            "groupName": ""
        },
        {
            "matchId": {
                "id": 5842,
                "name": "ipl2017-04"
            },
            "description": "Match 4",
            "matchDate": "2017-04-08T16:00:00+0530",
            "matchType": "IPLT20",
            "matchState": "U",
            "venue": {
                "id": 17,
                "fullName": "Holkar Cricket Stadium",
                "shortName": "Holkar Cricket Stadium",
                "city": "Indore",
                "country": "India"
            },
            "team1": {
                "team": {
                    "id": 4,
                    "fullName": "Kings XI Punjab",
                    "shortName": "Kings XI",
                    "abbreviation": "KXIP",
                    "primaryColor": "DA1F3D",
                    "secondaryColor": "FFFFFF",
                    "type": "m",
                    "typeString": "m"
                }
            },
            "team2": {
                "team": {
                    "id": 434,
                    "fullName": "Rising Pune Supergiant",
                    "shortName": "Supergiant",
                    "abbreviation": "RPS",
                    "primaryColor": "FFC0CB",
                    "secondaryColor": "AA3355",
                    "type": "m",
                    "typeString": "m"
                }
            },
            "groupName": ""
        },
        {
            "matchId": {
                "id": 5843,
                "name": "ipl2017-05"
            },
            "description": "Match 5",
            "matchDate": "2017-04-08T20:00:00+0530",
            "matchType": "IPLT20",
            "matchState": "U",
            "venue": {
                "id": 5,
                "fullName": "M. Chinnaswamy Stadium",
                "shortName": "M. Chinnaswamy Stadium",
                "city": "Bengaluru",
                "country": "India"
            },
            "team1": {
                "team": {
                    "id": 9,
                    "fullName": "Royal Challengers Bangalore",
                    "shortName": "Challengers",
                    "abbreviation": "RCB",
                    "primaryColor": "D33F46",
                    "secondaryColor": "FFFFFF",
                    "type": "m",
                    "typeString": "m"
                }
            },
            "team2": {
                "team": {
                    "id": 3,
                    "fullName": "Delhi Daredevils",
                    "shortName": "Daredevils",
                    "abbreviation": "DD",
                    "primaryColor": "B22E2A",
                    "secondaryColor": "FFFFFF",
                    "type": "m",
                    "typeString": "m"
                }
            },
            "groupName": ""
        },
        {
            "matchId": {
                "id": 5844,
                "name": "ipl2017-06"
            },
            "description": "Match 6",
            "matchDate": "2017-04-09T16:00:00+0530",
            "matchType": "IPLT20",
            "matchState": "U",
            "venue": {
                "id": 10,
                "fullName": "Rajiv Gandhi Intl. Cricket Stadium",
                "shortName": "Rajiv Gandhi Intl. Cricket Stadium",
                "city": "Hyderabad",
                "country": "India"
            },
            "team1": {
                "team": {
                    "id": 62,
                    "fullName": "Sunrisers Hyderabad",
                    "shortName": "Sunrisers",
                    "abbreviation": "SRH",
                    "primaryColor": "FF9C00",
                    "secondaryColor": "FFFFFF",
                    "type": "m",
                    "typeString": "m"
                }
            },
            "team2": {
                "team": {
                    "id": 433,
                    "fullName": "Gujarat Lions",
                    "shortName": "Gujarat Lions",
                    "abbreviation": "GL",
                    "primaryColor": "E5BA0F",
                    "secondaryColor": "383838",
                    "type": "m",
                    "typeString": "m"
                }
            },
            "groupName": ""
        },
        {
            "matchId": {
                "id": 5845,
                "name": "ipl2017-07"
            },
            "description": "Match 7",
            "matchDate": "2017-04-09T20:00:00+0530",
            "matchType": "IPLT20",
            "matchState": "U",
            "venue": {
                "id": 4,
                "fullName": "Wankhede Stadium",
                "shortName": "Wankhede Stadium",
                "city": "Mumbai",
                "country": "India"
            },
            "team1": {
                "team": {
                    "id": 6,
                    "fullName": "Mumbai Indians",
                    "shortName": "Mumbai",
                    "abbreviation": "MI",
                    "primaryColor": "00AEEF",
                    "secondaryColor": "FFFFFF",
                    "type": "m",
                    "typeString": "m"
                }
            },
            "team2": {
                "team": {
                    "id": 5,
                    "fullName": "Kolkata Knight Riders",
                    "shortName": "Knight Riders",
                    "abbreviation": "KKR",
                    "primaryColor": "6F2C91",
                    "secondaryColor": "FFFFFF",
                    "type": "m",
                    "typeString": "m"
                }
            },
            "groupName": ""
        },
        {
            "matchId": {
                "id": 5846,
                "name": "ipl2017-08"
            },
            "description": "Match 8",
            "matchDate": "2017-04-10T20:00:00+0530",
            "matchType": "IPLT20",
            "matchState": "U",
            "venue": {
                "id": 17,
                "fullName": "Holkar Cricket Stadium",
                "shortName": "Holkar Cricket Stadium",
                "city": "Indore",
                "country": "India"
            },
            "team1": {
                "team": {
                    "id": 4,
                    "fullName": "Kings XI Punjab",
                    "shortName": "Kings XI",
                    "abbreviation": "KXIP",
                    "primaryColor": "DA1F3D",
                    "secondaryColor": "FFFFFF",
                    "type": "m",
                    "typeString": "m"
                }
            },
            "team2": {
                "team": {
                    "id": 9,
                    "fullName": "Royal Challengers Bangalore",
                    "shortName": "Challengers",
                    "abbreviation": "RCB",
                    "primaryColor": "D33F46",
                    "secondaryColor": "FFFFFF",
                    "type": "m",
                    "typeString": "m"
                }
            },
            "groupName": ""
        },
        {
            "matchId": {
                "id": 5847,
                "name": "ipl2017-09"
            },
            "description": "Match 9",
            "matchDate": "2017-04-11T20:00:00+0530",
            "matchType": "IPLT20",
            "matchState": "U",
            "venue": {
                "id": 7,
                "fullName": "Maharashtra Cricket Association's International Stadium",
                "shortName": "Maharashtra Cricket Association's International Stadium",
                "city": "Pune",
                "country": "India"
            },
            "team1": {
                "team": {
                    "id": 434,
                    "fullName": "Rising Pune Supergiant",
                    "shortName": "Supergiant",
                    "abbreviation": "RPS",
                    "primaryColor": "FFC0CB",
                    "secondaryColor": "AA3355",
                    "type": "m",
                    "typeString": "m"
                }
            },
            "team2": {
                "team": {
                    "id": 3,
                    "fullName": "Delhi Daredevils",
                    "shortName": "Daredevils",
                    "abbreviation": "DD",
                    "primaryColor": "B22E2A",
                    "secondaryColor": "FFFFFF",
                    "type": "m",
                    "typeString": "m"
                }
            },
            "groupName": ""
        },
        {
            "matchId": {
                "id": 5848,
                "name": "ipl2017-10"
            },
            "description": "Match 10",
            "matchDate": "2017-04-12T20:00:00+0530",
            "matchType": "IPLT20",
            "matchState": "U",
            "venue": {
                "id": 4,
                "fullName": "Wankhede Stadium",
                "shortName": "Wankhede Stadium",
                "city": "Mumbai",
                "country": "India"
            },
            "team1": {
                "team": {
                    "id": 6,
                    "fullName": "Mumbai Indians",
                    "shortName": "Mumbai",
                    "abbreviation": "MI",
                    "primaryColor": "00AEEF",
                    "secondaryColor": "FFFFFF",
                    "type": "m",
                    "typeString": "m"
                }
            },
            "team2": {
                "team": {
                    "id": 62,
                    "fullName": "Sunrisers Hyderabad",
                    "shortName": "Sunrisers",
                    "abbreviation": "SRH",
                    "primaryColor": "FF9C00",
                    "secondaryColor": "FFFFFF",
                    "type": "m",
                    "typeString": "m"
                }
            },
            "groupName": ""
        },
        {
            "matchId": {
                "id": 5849,
                "name": "ipl2017-11"
            },
            "description": "Match 11",
            "matchDate": "2017-04-13T20:00:00+0530",
            "matchType": "IPLT20",
            "matchState": "U",
            "venue": {
                "id": 2,
                "fullName": "Eden Gardens",
                "shortName": "Eden Gardens",
                "city": "Kolkata",
                "country": "India"
            },
            "team1": {
                "team": {
                    "id": 5,
                    "fullName": "Kolkata Knight Riders",
                    "shortName": "Knight Riders",
                    "abbreviation": "KKR",
                    "primaryColor": "6F2C91",
                    "secondaryColor": "FFFFFF",
                    "type": "m",
                    "typeString": "m"
                }
            },
            "team2": {
                "team": {
                    "id": 4,
                    "fullName": "Kings XI Punjab",
                    "shortName": "Kings XI",
                    "abbreviation": "KXIP",
                    "primaryColor": "DA1F3D",
                    "secondaryColor": "FFFFFF",
                    "type": "m",
                    "typeString": "m"
                }
            },
            "groupName": ""
        },
        {
            "matchId": {
                "id": 5850,
                "name": "ipl2017-12"
            },
            "description": "Match 12",
            "matchDate": "2017-04-14T16:00:00+0530",
            "matchType": "IPLT20",
            "matchState": "U",
            "venue": {
                "id": 5,
                "fullName": "M. Chinnaswamy Stadium",
                "shortName": "M. Chinnaswamy Stadium",
                "city": "Bengaluru",
                "country": "India"
            },
            "team1": {
                "team": {
                    "id": 9,
                    "fullName": "Royal Challengers Bangalore",
                    "shortName": "Challengers",
                    "abbreviation": "RCB",
                    "primaryColor": "D33F46",
                    "secondaryColor": "FFFFFF",
                    "type": "m",
                    "typeString": "m"
                }
            },
            "team2": {
                "team": {
                    "id": 6,
                    "fullName": "Mumbai Indians",
                    "shortName": "Mumbai",
                    "abbreviation": "MI",
                    "primaryColor": "00AEEF",
                    "secondaryColor": "FFFFFF",
                    "type": "m",
                    "typeString": "m"
                }
            },
            "groupName": ""
        },
        {
            "matchId": {
                "id": 5851,
                "name": "ipl2017-13"
            },
            "description": "Match 13",
            "matchDate": "2017-04-14T20:00:00+0530",
            "matchType": "IPLT20",
            "matchState": "U",
            "venue": {
                "id": 44,
                "fullName": "Saurashtra Cricket Association Stadium",
                "shortName": "Saurashtra Cricket Association Stadium",
                "city": "Rajkot",
                "country": "India"
            },
            "team1": {
                "team": {
                    "id": 433,
                    "fullName": "Gujarat Lions",
                    "shortName": "Gujarat Lions",
                    "abbreviation": "GL",
                    "primaryColor": "E5BA0F",
                    "secondaryColor": "383838",
                    "type": "m",
                    "typeString": "m"
                }
            },
            "team2": {
                "team": {
                    "id": 434,
                    "fullName": "Rising Pune Supergiant",
                    "shortName": "Supergiant",
                    "abbreviation": "RPS",
                    "primaryColor": "FFC0CB",
                    "secondaryColor": "AA3355",
                    "type": "m",
                    "typeString": "m"
                }
            },
            "groupName": ""
        },
        {
            "matchId": {
                "id": 5852,
                "name": "ipl2017-14"
            },
            "description": "Match 14",
            "matchDate": "2017-04-15T16:00:00+0530",
            "matchType": "IPLT20",
            "matchState": "U",
            "venue": {
                "id": 2,
                "fullName": "Eden Gardens",
                "shortName": "Eden Gardens",
                "city": "Kolkata",
                "country": "India"
            },
            "team1": {
                "team": {
                    "id": 5,
                    "fullName": "Kolkata Knight Riders",
                    "shortName": "Knight Riders",
                    "abbreviation": "KKR",
                    "primaryColor": "6F2C91",
                    "secondaryColor": "FFFFFF",
                    "type": "m",
                    "typeString": "m"
                }
            },
            "team2": {
                "team": {
                    "id": 62,
                    "fullName": "Sunrisers Hyderabad",
                    "shortName": "Sunrisers",
                    "abbreviation": "SRH",
                    "primaryColor": "FF9C00",
                    "secondaryColor": "FFFFFF",
                    "type": "m",
                    "typeString": "m"
                }
            },
            "groupName": ""
        },
        {
            "matchId": {
                "id": 5853,
                "name": "ipl2017-15"
            },
            "description": "Match 15",
            "matchDate": "2017-04-15T20:00:00+0530",
            "matchType": "IPLT20",
            "matchState": "U",
            "venue": {
                "id": 8,
                "fullName": "Feroz Shah Kotla Ground",
                "shortName": "Feroz Shah Kotla Ground",
                "city": "Delhi",
                "country": "India"
            },
            "team1": {
                "team": {
                    "id": 3,
                    "fullName": "Delhi Daredevils",
                    "shortName": "Daredevils",
                    "abbreviation": "DD",
                    "primaryColor": "B22E2A",
                    "secondaryColor": "FFFFFF",
                    "type": "m",
                    "typeString": "m"
                }
            },
            "team2": {
                "team": {
                    "id": 4,
                    "fullName": "Kings XI Punjab",
                    "shortName": "Kings XI",
                    "abbreviation": "KXIP",
                    "primaryColor": "DA1F3D",
                    "secondaryColor": "FFFFFF",
                    "type": "m",
                    "typeString": "m"
                }
            },
            "groupName": ""
        },
        {
            "matchId": {
                "id": 5854,
                "name": "ipl2017-16"
            },
            "description": "Match 16",
            "matchDate": "2017-04-16T16:00:00+0530",
            "matchType": "IPLT20",
            "matchState": "U",
            "venue": {
                "id": 4,
                "fullName": "Wankhede Stadium",
                "shortName": "Wankhede Stadium",
                "city": "Mumbai",
                "country": "India"
            },
            "team1": {
                "team": {
                    "id": 6,
                    "fullName": "Mumbai Indians",
                    "shortName": "Mumbai",
                    "abbreviation": "MI",
                    "primaryColor": "00AEEF",
                    "secondaryColor": "FFFFFF",
                    "type": "m",
                    "typeString": "m"
                }
            },
            "team2": {
                "team": {
                    "id": 433,
                    "fullName": "Gujarat Lions",
                    "shortName": "Gujarat Lions",
                    "abbreviation": "GL",
                    "primaryColor": "E5BA0F",
                    "secondaryColor": "383838",
                    "type": "m",
                    "typeString": "m"
                }
            },
            "groupName": ""
        },
        {
            "matchId": {
                "id": 5855,
                "name": "ipl2017-17"
            },
            "description": "Match 17",
            "matchDate": "2017-04-16T20:00:00+0530",
            "matchType": "IPLT20",
            "matchState": "U",
            "venue": {
                "id": 5,
                "fullName": "M. Chinnaswamy Stadium",
                "shortName": "M. Chinnaswamy Stadium",
                "city": "Bengaluru",
                "country": "India"
            },
            "team1": {
                "team": {
                    "id": 9,
                    "fullName": "Royal Challengers Bangalore",
                    "shortName": "Challengers",
                    "abbreviation": "RCB",
                    "primaryColor": "D33F46",
                    "secondaryColor": "FFFFFF",
                    "type": "m",
                    "typeString": "m"
                }
            },
            "team2": {
                "team": {
                    "id": 434,
                    "fullName": "Rising Pune Supergiant",
                    "shortName": "Supergiant",
                    "abbreviation": "RPS",
                    "primaryColor": "FFC0CB",
                    "secondaryColor": "AA3355",
                    "type": "m",
                    "typeString": "m"
                }
            },
            "groupName": ""
        },
        {
            "matchId": {
                "id": 5856,
                "name": "ipl2017-18"
            },
            "description": "Match 18",
            "matchDate": "2017-04-17T16:00:00+0530",
            "matchType": "IPLT20",
            "matchState": "U",
            "venue": {
                "id": 8,
                "fullName": "Feroz Shah Kotla Ground",
                "shortName": "Feroz Shah Kotla Ground",
                "city": "Delhi",
                "country": "India"
            },
            "team1": {
                "team": {
                    "id": 3,
                    "fullName": "Delhi Daredevils",
                    "shortName": "Daredevils",
                    "abbreviation": "DD",
                    "primaryColor": "B22E2A",
                    "secondaryColor": "FFFFFF",
                    "type": "m",
                    "typeString": "m"
                }
            },
            "team2": {
                "team": {
                    "id": 5,
                    "fullName": "Kolkata Knight Riders",
                    "shortName": "Knight Riders",
                    "abbreviation": "KKR",
                    "primaryColor": "6F2C91",
                    "secondaryColor": "FFFFFF",
                    "type": "m",
                    "typeString": "m"
                }
            },
            "groupName": ""
        },
        {
            "matchId": {
                "id": 5857,
                "name": "ipl2017-19"
            },
            "description": "Match 19",
            "matchDate": "2017-04-17T20:00:00+0530",
            "matchType": "IPLT20",
            "matchState": "U",
            "venue": {
                "id": 10,
                "fullName": "Rajiv Gandhi Intl. Cricket Stadium",
                "shortName": "Rajiv Gandhi Intl. Cricket Stadium",
                "city": "Hyderabad",
                "country": "India"
            },
            "team1": {
                "team": {
                    "id": 62,
                    "fullName": "Sunrisers Hyderabad",
                    "shortName": "Sunrisers",
                    "abbreviation": "SRH",
                    "primaryColor": "FF9C00",
                    "secondaryColor": "FFFFFF",
                    "type": "m",
                    "typeString": "m"
                }
            },
            "team2": {
                "team": {
                    "id": 4,
                    "fullName": "Kings XI Punjab",
                    "shortName": "Kings XI",
                    "abbreviation": "KXIP",
                    "primaryColor": "DA1F3D",
                    "secondaryColor": "FFFFFF",
                    "type": "m",
                    "typeString": "m"
                }
            },
            "groupName": ""
        },
        {
            "matchId": {
                "id": 5858,
                "name": "ipl2017-20"
            },
            "description": "Match 20",
            "matchDate": "2017-04-18T20:00:00+0530",
            "matchType": "IPLT20",
            "matchState": "U",
            "venue": {
                "id": 44,
                "fullName": "Saurashtra Cricket Association Stadium",
                "shortName": "Saurashtra Cricket Association Stadium",
                "city": "Rajkot",
                "country": "India"
            },
            "team1": {
                "team": {
                    "id": 433,
                    "fullName": "Gujarat Lions",
                    "shortName": "Gujarat Lions",
                    "abbreviation": "GL",
                    "primaryColor": "E5BA0F",
                    "secondaryColor": "383838",
                    "type": "m",
                    "typeString": "m"
                }
            },
            "team2": {
                "team": {
                    "id": 9,
                    "fullName": "Royal Challengers Bangalore",
                    "shortName": "Challengers",
                    "abbreviation": "RCB",
                    "primaryColor": "D33F46",
                    "secondaryColor": "FFFFFF",
                    "type": "m",
                    "typeString": "m"
                }
            },
            "groupName": ""
        },
        {
            "matchId": {
                "id": 5859,
                "name": "ipl2017-21"
            },
            "description": "Match 21",
            "matchDate": "2017-04-19T20:00:00+0530",
            "matchType": "IPLT20",
            "matchState": "U",
            "venue": {
                "id": 10,
                "fullName": "Rajiv Gandhi Intl. Cricket Stadium",
                "shortName": "Rajiv Gandhi Intl. Cricket Stadium",
                "city": "Hyderabad",
                "country": "India"
            },
            "team1": {
                "team": {
                    "id": 62,
                    "fullName": "Sunrisers Hyderabad",
                    "shortName": "Sunrisers",
                    "abbreviation": "SRH",
                    "primaryColor": "FF9C00",
                    "secondaryColor": "FFFFFF",
                    "type": "m",
                    "typeString": "m"
                }
            },
            "team2": {
                "team": {
                    "id": 3,
                    "fullName": "Delhi Daredevils",
                    "shortName": "Daredevils",
                    "abbreviation": "DD",
                    "primaryColor": "B22E2A",
                    "secondaryColor": "FFFFFF",
                    "type": "m",
                    "typeString": "m"
                }
            },
            "groupName": ""
        },
        {
            "matchId": {
                "id": 5860,
                "name": "ipl2017-22"
            },
            "description": "Match 22",
            "matchDate": "2017-04-20T20:00:00+0530",
            "matchType": "IPLT20",
            "matchState": "U",
            "venue": {
                "id": 17,
                "fullName": "Holkar Cricket Stadium",
                "shortName": "Holkar Cricket Stadium",
                "city": "Indore",
                "country": "India"
            },
            "team1": {
                "team": {
                    "id": 4,
                    "fullName": "Kings XI Punjab",
                    "shortName": "Kings XI",
                    "abbreviation": "KXIP",
                    "primaryColor": "DA1F3D",
                    "secondaryColor": "FFFFFF",
                    "type": "m",
                    "typeString": "m"
                }
            },
            "team2": {
                "team": {
                    "id": 6,
                    "fullName": "Mumbai Indians",
                    "shortName": "Mumbai",
                    "abbreviation": "MI",
                    "primaryColor": "00AEEF",
                    "secondaryColor": "FFFFFF",
                    "type": "m",
                    "typeString": "m"
                }
            },
            "groupName": ""
        },
        {
            "matchId": {
                "id": 5861,
                "name": "ipl2017-23"
            },
            "description": "Match 23",
            "matchDate": "2017-04-21T20:00:00+0530",
            "matchType": "IPLT20",
            "matchState": "U",
            "venue": {
                "id": 2,
                "fullName": "Eden Gardens",
                "shortName": "Eden Gardens",
                "city": "Kolkata",
                "country": "India"
            },
            "team1": {
                "team": {
                    "id": 5,
                    "fullName": "Kolkata Knight Riders",
                    "shortName": "Knight Riders",
                    "abbreviation": "KKR",
                    "primaryColor": "6F2C91",
                    "secondaryColor": "FFFFFF",
                    "type": "m",
                    "typeString": "m"
                }
            },
            "team2": {
                "team": {
                    "id": 433,
                    "fullName": "Gujarat Lions",
                    "shortName": "Gujarat Lions",
                    "abbreviation": "GL",
                    "primaryColor": "E5BA0F",
                    "secondaryColor": "383838",
                    "type": "m",
                    "typeString": "m"
                }
            },
            "groupName": ""
        },
        {
            "matchId": {
                "id": 5862,
                "name": "ipl2017-24"
            },
            "description": "Match 24",
            "matchDate": "2017-04-22T16:00:00+0530",
            "matchType": "IPLT20",
            "matchState": "U",
            "venue": {
                "id": 7,
                "fullName": "Maharashtra Cricket Association's International Stadium",
                "shortName": "Maharashtra Cricket Association's International Stadium",
                "city": "Pune",
                "country": "India"
            },
            "team1": {
                "team": {
                    "id": 434,
                    "fullName": "Rising Pune Supergiant",
                    "shortName": "Supergiant",
                    "abbreviation": "RPS",
                    "primaryColor": "FFC0CB",
                    "secondaryColor": "AA3355",
                    "type": "m",
                    "typeString": "m"
                }
            },
            "team2": {
                "team": {
                    "id": 62,
                    "fullName": "Sunrisers Hyderabad",
                    "shortName": "Sunrisers",
                    "abbreviation": "SRH",
                    "primaryColor": "FF9C00",
                    "secondaryColor": "FFFFFF",
                    "type": "m",
                    "typeString": "m"
                }
            },
            "groupName": ""
        },
        {
            "matchId": {
                "id": 5863,
                "name": "ipl2017-25"
            },
            "description": "Match 25",
            "matchDate": "2017-04-22T20:00:00+0530",
            "matchType": "IPLT20",
            "matchState": "U",
            "venue": {
                "id": 4,
                "fullName": "Wankhede Stadium",
                "shortName": "Wankhede Stadium",
                "city": "Mumbai",
                "country": "India"
            },
            "team1": {
                "team": {
                    "id": 6,
                    "fullName": "Mumbai Indians",
                    "shortName": "Mumbai",
                    "abbreviation": "MI",
                    "primaryColor": "00AEEF",
                    "secondaryColor": "FFFFFF",
                    "type": "m",
                    "typeString": "m"
                }
            },
            "team2": {
                "team": {
                    "id": 3,
                    "fullName": "Delhi Daredevils",
                    "shortName": "Daredevils",
                    "abbreviation": "DD",
                    "primaryColor": "B22E2A",
                    "secondaryColor": "FFFFFF",
                    "type": "m",
                    "typeString": "m"
                }
            },
            "groupName": ""
        },
        {
            "matchId": {
                "id": 5864,
                "name": "ipl2017-26"
            },
            "description": "Match 26",
            "matchDate": "2017-04-23T16:00:00+0530",
            "matchType": "IPLT20",
            "matchState": "U",
            "venue": {
                "id": 44,
                "fullName": "Saurashtra Cricket Association Stadium",
                "shortName": "Saurashtra Cricket Association Stadium",
                "city": "Rajkot",
                "country": "India"
            },
            "team1": {
                "team": {
                    "id": 433,
                    "fullName": "Gujarat Lions",
                    "shortName": "Gujarat Lions",
                    "abbreviation": "GL",
                    "primaryColor": "E5BA0F",
                    "secondaryColor": "383838",
                    "type": "m",
                    "typeString": "m"
                }
            },
            "team2": {
                "team": {
                    "id": 4,
                    "fullName": "Kings XI Punjab",
                    "shortName": "Kings XI",
                    "abbreviation": "KXIP",
                    "primaryColor": "DA1F3D",
                    "secondaryColor": "FFFFFF",
                    "type": "m",
                    "typeString": "m"
                }
            },
            "groupName": ""
        },
        {
            "matchId": {
                "id": 5865,
                "name": "ipl2017-27"
            },
            "description": "Match 27",
            "matchDate": "2017-04-23T20:00:00+0530",
            "matchType": "IPLT20",
            "matchState": "U",
            "venue": {
                "id": 2,
                "fullName": "Eden Gardens",
                "shortName": "Eden Gardens",
                "city": "Kolkata",
                "country": "India"
            },
            "team1": {
                "team": {
                    "id": 5,
                    "fullName": "Kolkata Knight Riders",
                    "shortName": "Knight Riders",
                    "abbreviation": "KKR",
                    "primaryColor": "6F2C91",
                    "secondaryColor": "FFFFFF",
                    "type": "m",
                    "typeString": "m"
                }
            },
            "team2": {
                "team": {
                    "id": 9,
                    "fullName": "Royal Challengers Bangalore",
                    "shortName": "Challengers",
                    "abbreviation": "RCB",
                    "primaryColor": "D33F46",
                    "secondaryColor": "FFFFFF",
                    "type": "m",
                    "typeString": "m"
                }
            },
            "groupName": ""
        },
        {
            "matchId": {
                "id": 5866,
                "name": "ipl2017-28"
            },
            "description": "Match 28",
            "matchDate": "2017-04-24T20:00:00+0530",
            "matchType": "IPLT20",
            "matchState": "U",
            "venue": {
                "id": 4,
                "fullName": "Wankhede Stadium",
                "shortName": "Wankhede Stadium",
                "city": "Mumbai",
                "country": "India"
            },
            "team1": {
                "team": {
                    "id": 6,
                    "fullName": "Mumbai Indians",
                    "shortName": "Mumbai",
                    "abbreviation": "MI",
                    "primaryColor": "00AEEF",
                    "secondaryColor": "FFFFFF",
                    "type": "m",
                    "typeString": "m"
                }
            },
            "team2": {
                "team": {
                    "id": 434,
                    "fullName": "Rising Pune Supergiant",
                    "shortName": "Supergiant",
                    "abbreviation": "RPS",
                    "primaryColor": "FFC0CB",
                    "secondaryColor": "AA3355",
                    "type": "m",
                    "typeString": "m"
                }
            },
            "groupName": ""
        },
        {
            "matchId": {
                "id": 5867,
                "name": "ipl2017-29"
            },
            "description": "Match 29",
            "matchDate": "2017-04-25T20:00:00+0530",
            "matchType": "IPLT20",
            "matchState": "U",
            "venue": {
                "id": 5,
                "fullName": "M. Chinnaswamy Stadium",
                "shortName": "M. Chinnaswamy Stadium",
                "city": "Bengaluru",
                "country": "India"
            },
            "team1": {
                "team": {
                    "id": 9,
                    "fullName": "Royal Challengers Bangalore",
                    "shortName": "Challengers",
                    "abbreviation": "RCB",
                    "primaryColor": "D33F46",
                    "secondaryColor": "FFFFFF",
                    "type": "m",
                    "typeString": "m"
                }
            },
            "team2": {
                "team": {
                    "id": 62,
                    "fullName": "Sunrisers Hyderabad",
                    "shortName": "Sunrisers",
                    "abbreviation": "SRH",
                    "primaryColor": "FF9C00",
                    "secondaryColor": "FFFFFF",
                    "type": "m",
                    "typeString": "m"
                }
            },
            "groupName": ""
        },
        {
            "matchId": {
                "id": 5868,
                "name": "ipl2017-30"
            },
            "description": "Match 30",
            "matchDate": "2017-04-26T20:00:00+0530",
            "matchType": "IPLT20",
            "matchState": "U",
            "venue": {
                "id": 7,
                "fullName": "Maharashtra Cricket Association's International Stadium",
                "shortName": "Maharashtra Cricket Association's International Stadium",
                "city": "Pune",
                "country": "India"
            },
            "team1": {
                "team": {
                    "id": 434,
                    "fullName": "Rising Pune Supergiant",
                    "shortName": "Supergiant",
                    "abbreviation": "RPS",
                    "primaryColor": "FFC0CB",
                    "secondaryColor": "AA3355",
                    "type": "m",
                    "typeString": "m"
                }
            },
            "team2": {
                "team": {
                    "id": 5,
                    "fullName": "Kolkata Knight Riders",
                    "shortName": "Knight Riders",
                    "abbreviation": "KKR",
                    "primaryColor": "6F2C91",
                    "secondaryColor": "FFFFFF",
                    "type": "m",
                    "typeString": "m"
                }
            },
            "groupName": ""
        },
        {
            "matchId": {
                "id": 5869,
                "name": "ipl2017-31"
            },
            "description": "Match 31",
            "matchDate": "2017-04-27T20:00:00+0530",
            "matchType": "IPLT20",
            "matchState": "U",
            "venue": {
                "id": 5,
                "fullName": "M. Chinnaswamy Stadium",
                "shortName": "M. Chinnaswamy Stadium",
                "city": "Bengaluru",
                "country": "India"
            },
            "team1": {
                "team": {
                    "id": 9,
                    "fullName": "Royal Challengers Bangalore",
                    "shortName": "Challengers",
                    "abbreviation": "RCB",
                    "primaryColor": "D33F46",
                    "secondaryColor": "FFFFFF",
                    "type": "m",
                    "typeString": "m"
                }
            },
            "team2": {
                "team": {
                    "id": 433,
                    "fullName": "Gujarat Lions",
                    "shortName": "Gujarat Lions",
                    "abbreviation": "GL",
                    "primaryColor": "E5BA0F",
                    "secondaryColor": "383838",
                    "type": "m",
                    "typeString": "m"
                }
            },
            "groupName": ""
        },
        {
            "matchId": {
                "id": 5870,
                "name": "ipl2017-32"
            },
            "description": "Match 32",
            "matchDate": "2017-04-28T16:00:00+0530",
            "matchType": "IPLT20",
            "matchState": "U",
            "venue": {
                "id": 2,
                "fullName": "Eden Gardens",
                "shortName": "Eden Gardens",
                "city": "Kolkata",
                "country": "India"
            },
            "team1": {
                "team": {
                    "id": 5,
                    "fullName": "Kolkata Knight Riders",
                    "shortName": "Knight Riders",
                    "abbreviation": "KKR",
                    "primaryColor": "6F2C91",
                    "secondaryColor": "FFFFFF",
                    "type": "m",
                    "typeString": "m"
                }
            },
            "team2": {
                "team": {
                    "id": 3,
                    "fullName": "Delhi Daredevils",
                    "shortName": "Daredevils",
                    "abbreviation": "DD",
                    "primaryColor": "B22E2A",
                    "secondaryColor": "FFFFFF",
                    "type": "m",
                    "typeString": "m"
                }
            },
            "groupName": ""
        },
        {
            "matchId": {
                "id": 5871,
                "name": "ipl2017-33"
            },
            "description": "Match 33",
            "matchDate": "2017-04-28T20:00:00+0530",
            "matchType": "IPLT20",
            "matchState": "U",
            "venue": {
                "id": 9,
                "fullName": "IS Bindra Stadium",
                "shortName": "IS Bindra Stadium",
                "city": "Mohali",
                "country": "India"
            },
            "team1": {
                "team": {
                    "id": 4,
                    "fullName": "Kings XI Punjab",
                    "shortName": "Kings XI",
                    "abbreviation": "KXIP",
                    "primaryColor": "DA1F3D",
                    "secondaryColor": "FFFFFF",
                    "type": "m",
                    "typeString": "m"
                }
            },
            "team2": {
                "team": {
                    "id": 62,
                    "fullName": "Sunrisers Hyderabad",
                    "shortName": "Sunrisers",
                    "abbreviation": "SRH",
                    "primaryColor": "FF9C00",
                    "secondaryColor": "FFFFFF",
                    "type": "m",
                    "typeString": "m"
                }
            },
            "groupName": ""
        },
        {
            "matchId": {
                "id": 5872,
                "name": "ipl2017-34"
            },
            "description": "Match 34",
            "matchDate": "2017-04-29T16:00:00+0530",
            "matchType": "IPLT20",
            "matchState": "U",
            "venue": {
                "id": 7,
                "fullName": "Maharashtra Cricket Association's International Stadium",
                "shortName": "Maharashtra Cricket Association's International Stadium",
                "city": "Pune",
                "country": "India"
            },
            "team1": {
                "team": {
                    "id": 434,
                    "fullName": "Rising Pune Supergiant",
                    "shortName": "Supergiant",
                    "abbreviation": "RPS",
                    "primaryColor": "FFC0CB",
                    "secondaryColor": "AA3355",
                    "type": "m",
                    "typeString": "m"
                }
            },
            "team2": {
                "team": {
                    "id": 9,
                    "fullName": "Royal Challengers Bangalore",
                    "shortName": "Challengers",
                    "abbreviation": "RCB",
                    "primaryColor": "D33F46",
                    "secondaryColor": "FFFFFF",
                    "type": "m",
                    "typeString": "m"
                }
            },
            "groupName": ""
        },
        {
            "matchId": {
                "id": 5873,
                "name": "ipl2017-35"
            },
            "description": "Match 35",
            "matchDate": "2017-04-29T20:00:00+0530",
            "matchType": "IPLT20",
            "matchState": "U",
            "venue": {
                "id": 44,
                "fullName": "Saurashtra Cricket Association Stadium",
                "shortName": "Saurashtra Cricket Association Stadium",
                "city": "Rajkot",
                "country": "India"
            },
            "team1": {
                "team": {
                    "id": 433,
                    "fullName": "Gujarat Lions",
                    "shortName": "Gujarat Lions",
                    "abbreviation": "GL",
                    "primaryColor": "E5BA0F",
                    "secondaryColor": "383838",
                    "type": "m",
                    "typeString": "m"
                }
            },
            "team2": {
                "team": {
                    "id": 6,
                    "fullName": "Mumbai Indians",
                    "shortName": "Mumbai",
                    "abbreviation": "MI",
                    "primaryColor": "00AEEF",
                    "secondaryColor": "FFFFFF",
                    "type": "m",
                    "typeString": "m"
                }
            },
            "groupName": ""
        },
        {
            "matchId": {
                "id": 5874,
                "name": "ipl2017-36"
            },
            "description": "Match 36",
            "matchDate": "2017-04-30T16:00:00+0530",
            "matchType": "IPLT20",
            "matchState": "U",
            "venue": {
                "id": 9,
                "fullName": "IS Bindra Stadium",
                "shortName": "IS Bindra Stadium",
                "city": "Mohali",
                "country": "India"
            },
            "team1": {
                "team": {
                    "id": 4,
                    "fullName": "Kings XI Punjab",
                    "shortName": "Kings XI",
                    "abbreviation": "KXIP",
                    "primaryColor": "DA1F3D",
                    "secondaryColor": "FFFFFF",
                    "type": "m",
                    "typeString": "m"
                }
            },
            "team2": {
                "team": {
                    "id": 3,
                    "fullName": "Delhi Daredevils",
                    "shortName": "Daredevils",
                    "abbreviation": "DD",
                    "primaryColor": "B22E2A",
                    "secondaryColor": "FFFFFF",
                    "type": "m",
                    "typeString": "m"
                }
            },
            "groupName": ""
        },
        {
            "matchId": {
                "id": 5875,
                "name": "ipl2017-37"
            },
            "description": "Match 37",
            "matchDate": "2017-04-30T20:00:00+0530",
            "matchType": "IPLT20",
            "matchState": "U",
            "venue": {
                "id": 10,
                "fullName": "Rajiv Gandhi Intl. Cricket Stadium",
                "shortName": "Rajiv Gandhi Intl. Cricket Stadium",
                "city": "Hyderabad",
                "country": "India"
            },
            "team1": {
                "team": {
                    "id": 62,
                    "fullName": "Sunrisers Hyderabad",
                    "shortName": "Sunrisers",
                    "abbreviation": "SRH",
                    "primaryColor": "FF9C00",
                    "secondaryColor": "FFFFFF",
                    "type": "m",
                    "typeString": "m"
                }
            },
            "team2": {
                "team": {
                    "id": 5,
                    "fullName": "Kolkata Knight Riders",
                    "shortName": "Knight Riders",
                    "abbreviation": "KKR",
                    "primaryColor": "6F2C91",
                    "secondaryColor": "FFFFFF",
                    "type": "m",
                    "typeString": "m"
                }
            },
            "groupName": ""
        },
        {
            "matchId": {
                "id": 5876,
                "name": "ipl2017-38"
            },
            "description": "Match 38",
            "matchDate": "2017-05-01T16:00:00+0530",
            "matchType": "IPLT20",
            "matchState": "U",
            "venue": {
                "id": 4,
                "fullName": "Wankhede Stadium",
                "shortName": "Wankhede Stadium",
                "city": "Mumbai",
                "country": "India"
            },
            "team1": {
                "team": {
                    "id": 6,
                    "fullName": "Mumbai Indians",
                    "shortName": "Mumbai",
                    "abbreviation": "MI",
                    "primaryColor": "00AEEF",
                    "secondaryColor": "FFFFFF",
                    "type": "m",
                    "typeString": "m"
                }
            },
            "team2": {
                "team": {
                    "id": 9,
                    "fullName": "Royal Challengers Bangalore",
                    "shortName": "Challengers",
                    "abbreviation": "RCB",
                    "primaryColor": "D33F46",
                    "secondaryColor": "FFFFFF",
                    "type": "m",
                    "typeString": "m"
                }
            },
            "groupName": ""
        },
        {
            "matchId": {
                "id": 5877,
                "name": "ipl2017-39"
            },
            "description": "Match 39",
            "matchDate": "2017-05-01T20:00:00+0530",
            "matchType": "IPLT20",
            "matchState": "U",
            "venue": {
                "id": 7,
                "fullName": "Maharashtra Cricket Association's International Stadium",
                "shortName": "Maharashtra Cricket Association's International Stadium",
                "city": "Pune",
                "country": "India"
            },
            "team1": {
                "team": {
                    "id": 434,
                    "fullName": "Rising Pune Supergiant",
                    "shortName": "Supergiant",
                    "abbreviation": "RPS",
                    "primaryColor": "FFC0CB",
                    "secondaryColor": "AA3355",
                    "type": "m",
                    "typeString": "m"
                }
            },
            "team2": {
                "team": {
                    "id": 433,
                    "fullName": "Gujarat Lions",
                    "shortName": "Gujarat Lions",
                    "abbreviation": "GL",
                    "primaryColor": "E5BA0F",
                    "secondaryColor": "383838",
                    "type": "m",
                    "typeString": "m"
                }
            },
            "groupName": ""
        },
        {
            "matchId": {
                "id": 5878,
                "name": "ipl2017-40"
            },
            "description": "Match 40",
            "matchDate": "2017-05-02T20:00:00+0530",
            "matchType": "IPLT20",
            "matchState": "U",
            "venue": {
                "id": 8,
                "fullName": "Feroz Shah Kotla Ground",
                "shortName": "Feroz Shah Kotla Ground",
                "city": "Delhi",
                "country": "India"
            },
            "team1": {
                "team": {
                    "id": 3,
                    "fullName": "Delhi Daredevils",
                    "shortName": "Daredevils",
                    "abbreviation": "DD",
                    "primaryColor": "B22E2A",
                    "secondaryColor": "FFFFFF",
                    "type": "m",
                    "typeString": "m"
                }
            },
            "team2": {
                "team": {
                    "id": 62,
                    "fullName": "Sunrisers Hyderabad",
                    "shortName": "Sunrisers",
                    "abbreviation": "SRH",
                    "primaryColor": "FF9C00",
                    "secondaryColor": "FFFFFF",
                    "type": "m",
                    "typeString": "m"
                }
            },
            "groupName": ""
        },
        {
            "matchId": {
                "id": 5879,
                "name": "ipl2017-41"
            },
            "description": "Match 41",
            "matchDate": "2017-05-03T20:00:00+0530",
            "matchType": "IPLT20",
            "matchState": "U",
            "venue": {
                "id": 2,
                "fullName": "Eden Gardens",
                "shortName": "Eden Gardens",
                "city": "Kolkata",
                "country": "India"
            },
            "team1": {
                "team": {
                    "id": 5,
                    "fullName": "Kolkata Knight Riders",
                    "shortName": "Knight Riders",
                    "abbreviation": "KKR",
                    "primaryColor": "6F2C91",
                    "secondaryColor": "FFFFFF",
                    "type": "m",
                    "typeString": "m"
                }
            },
            "team2": {
                "team": {
                    "id": 434,
                    "fullName": "Rising Pune Supergiant",
                    "shortName": "Supergiant",
                    "abbreviation": "RPS",
                    "primaryColor": "FFC0CB",
                    "secondaryColor": "AA3355",
                    "type": "m",
                    "typeString": "m"
                }
            },
            "groupName": ""
        },
        {
            "matchId": {
                "id": 5880,
                "name": "ipl2017-42"
            },
            "description": "Match 42",
            "matchDate": "2017-05-04T20:00:00+0530",
            "matchType": "IPLT20",
            "matchState": "U",
            "venue": {
                "id": 8,
                "fullName": "Feroz Shah Kotla Ground",
                "shortName": "Feroz Shah Kotla Ground",
                "city": "Delhi",
                "country": "India"
            },
            "team1": {
                "team": {
                    "id": 3,
                    "fullName": "Delhi Daredevils",
                    "shortName": "Daredevils",
                    "abbreviation": "DD",
                    "primaryColor": "B22E2A",
                    "secondaryColor": "FFFFFF",
                    "type": "m",
                    "typeString": "m"
                }
            },
            "team2": {
                "team": {
                    "id": 433,
                    "fullName": "Gujarat Lions",
                    "shortName": "Gujarat Lions",
                    "abbreviation": "GL",
                    "primaryColor": "E5BA0F",
                    "secondaryColor": "383838",
                    "type": "m",
                    "typeString": "m"
                }
            },
            "groupName": ""
        },
        {
            "matchId": {
                "id": 5881,
                "name": "ipl2017-43"
            },
            "description": "Match 43",
            "matchDate": "2017-05-05T20:00:00+0530",
            "matchType": "IPLT20",
            "matchState": "U",
            "venue": {
                "id": 5,
                "fullName": "M. Chinnaswamy Stadium",
                "shortName": "M. Chinnaswamy Stadium",
                "city": "Bengaluru",
                "country": "India"
            },
            "team1": {
                "team": {
                    "id": 9,
                    "fullName": "Royal Challengers Bangalore",
                    "shortName": "Challengers",
                    "abbreviation": "RCB",
                    "primaryColor": "D33F46",
                    "secondaryColor": "FFFFFF",
                    "type": "m",
                    "typeString": "m"
                }
            },
            "team2": {
                "team": {
                    "id": 4,
                    "fullName": "Kings XI Punjab",
                    "shortName": "Kings XI",
                    "abbreviation": "KXIP",
                    "primaryColor": "DA1F3D",
                    "secondaryColor": "FFFFFF",
                    "type": "m",
                    "typeString": "m"
                }
            },
            "groupName": ""
        },
        {
            "matchId": {
                "id": 5882,
                "name": "ipl2017-44"
            },
            "description": "Match 44",
            "matchDate": "2017-05-06T16:00:00+0530",
            "matchType": "IPLT20",
            "matchState": "U",
            "venue": {
                "id": 10,
                "fullName": "Rajiv Gandhi Intl. Cricket Stadium",
                "shortName": "Rajiv Gandhi Intl. Cricket Stadium",
                "city": "Hyderabad",
                "country": "India"
            },
            "team1": {
                "team": {
                    "id": 62,
                    "fullName": "Sunrisers Hyderabad",
                    "shortName": "Sunrisers",
                    "abbreviation": "SRH",
                    "primaryColor": "FF9C00",
                    "secondaryColor": "FFFFFF",
                    "type": "m",
                    "typeString": "m"
                }
            },
            "team2": {
                "team": {
                    "id": 434,
                    "fullName": "Rising Pune Supergiant",
                    "shortName": "Supergiant",
                    "abbreviation": "RPS",
                    "primaryColor": "FFC0CB",
                    "secondaryColor": "AA3355",
                    "type": "m",
                    "typeString": "m"
                }
            },
            "groupName": ""
        },
        {
            "matchId": {
                "id": 5883,
                "name": "ipl2017-45"
            },
            "description": "Match 45",
            "matchDate": "2017-05-06T20:00:00+0530",
            "matchType": "IPLT20",
            "matchState": "U",
            "venue": {
                "id": 8,
                "fullName": "Feroz Shah Kotla Ground",
                "shortName": "Feroz Shah Kotla Ground",
                "city": "Delhi",
                "country": "India"
            },
            "team1": {
                "team": {
                    "id": 3,
                    "fullName": "Delhi Daredevils",
                    "shortName": "Daredevils",
                    "abbreviation": "DD",
                    "primaryColor": "B22E2A",
                    "secondaryColor": "FFFFFF",
                    "type": "m",
                    "typeString": "m"
                }
            },
            "team2": {
                "team": {
                    "id": 6,
                    "fullName": "Mumbai Indians",
                    "shortName": "Mumbai",
                    "abbreviation": "MI",
                    "primaryColor": "00AEEF",
                    "secondaryColor": "FFFFFF",
                    "type": "m",
                    "typeString": "m"
                }
            },
            "groupName": ""
        },
        {
            "matchId": {
                "id": 5884,
                "name": "ipl2017-46"
            },
            "description": "Match 46",
            "matchDate": "2017-05-07T16:00:00+0530",
            "matchType": "IPLT20",
            "matchState": "U",
            "venue": {
                "id": 5,
                "fullName": "M. Chinnaswamy Stadium",
                "shortName": "M. Chinnaswamy Stadium",
                "city": "Bengaluru",
                "country": "India"
            },
            "team1": {
                "team": {
                    "id": 9,
                    "fullName": "Royal Challengers Bangalore",
                    "shortName": "Challengers",
                    "abbreviation": "RCB",
                    "primaryColor": "D33F46",
                    "secondaryColor": "FFFFFF",
                    "type": "m",
                    "typeString": "m"
                }
            },
            "team2": {
                "team": {
                    "id": 5,
                    "fullName": "Kolkata Knight Riders",
                    "shortName": "Knight Riders",
                    "abbreviation": "KKR",
                    "primaryColor": "6F2C91",
                    "secondaryColor": "FFFFFF",
                    "type": "m",
                    "typeString": "m"
                }
            },
            "groupName": ""
        },
        {
            "matchId": {
                "id": 5885,
                "name": "ipl2017-47"
            },
            "description": "Match 47",
            "matchDate": "2017-05-07T20:00:00+0530",
            "matchType": "IPLT20",
            "matchState": "U",
            "venue": {
                "id": 9,
                "fullName": "IS Bindra Stadium",
                "shortName": "IS Bindra Stadium",
                "city": "Mohali",
                "country": "India"
            },
            "team1": {
                "team": {
                    "id": 4,
                    "fullName": "Kings XI Punjab",
                    "shortName": "Kings XI",
                    "abbreviation": "KXIP",
                    "primaryColor": "DA1F3D",
                    "secondaryColor": "FFFFFF",
                    "type": "m",
                    "typeString": "m"
                }
            },
            "team2": {
                "team": {
                    "id": 433,
                    "fullName": "Gujarat Lions",
                    "shortName": "Gujarat Lions",
                    "abbreviation": "GL",
                    "primaryColor": "E5BA0F",
                    "secondaryColor": "383838",
                    "type": "m",
                    "typeString": "m"
                }
            },
            "groupName": ""
        },
        {
            "matchId": {
                "id": 5886,
                "name": "ipl2017-48"
            },
            "description": "Match 48",
            "matchDate": "2017-05-08T20:00:00+0530",
            "matchType": "IPLT20",
            "matchState": "U",
            "venue": {
                "id": 10,
                "fullName": "Rajiv Gandhi Intl. Cricket Stadium",
                "shortName": "Rajiv Gandhi Intl. Cricket Stadium",
                "city": "Hyderabad",
                "country": "India"
            },
            "team1": {
                "team": {
                    "id": 62,
                    "fullName": "Sunrisers Hyderabad",
                    "shortName": "Sunrisers",
                    "abbreviation": "SRH",
                    "primaryColor": "FF9C00",
                    "secondaryColor": "FFFFFF",
                    "type": "m",
                    "typeString": "m"
                }
            },
            "team2": {
                "team": {
                    "id": 6,
                    "fullName": "Mumbai Indians",
                    "shortName": "Mumbai",
                    "abbreviation": "MI",
                    "primaryColor": "00AEEF",
                    "secondaryColor": "FFFFFF",
                    "type": "m",
                    "typeString": "m"
                }
            },
            "groupName": ""
        },
        {
            "matchId": {
                "id": 5887,
                "name": "ipl2017-49"
            },
            "description": "Match 49",
            "matchDate": "2017-05-09T20:00:00+0530",
            "matchType": "IPLT20",
            "matchState": "U",
            "venue": {
                "id": 9,
                "fullName": "IS Bindra Stadium",
                "shortName": "IS Bindra Stadium",
                "city": "Mohali",
                "country": "India"
            },
            "team1": {
                "team": {
                    "id": 4,
                    "fullName": "Kings XI Punjab",
                    "shortName": "Kings XI",
                    "abbreviation": "KXIP",
                    "primaryColor": "DA1F3D",
                    "secondaryColor": "FFFFFF",
                    "type": "m",
                    "typeString": "m"
                }
            },
            "team2": {
                "team": {
                    "id": 5,
                    "fullName": "Kolkata Knight Riders",
                    "shortName": "Knight Riders",
                    "abbreviation": "KKR",
                    "primaryColor": "6F2C91",
                    "secondaryColor": "FFFFFF",
                    "type": "m",
                    "typeString": "m"
                }
            },
            "groupName": ""
        },
        {
            "matchId": {
                "id": 5888,
                "name": "ipl2017-50"
            },
            "description": "Match 50",
            "matchDate": "2017-05-10T20:00:00+0530",
            "matchType": "IPLT20",
            "matchState": "U",
            "venue": {
                "id": 131,
                "fullName": "Green Park",
                "shortName": "Green Park",
                "city": "Kanpur",
                "country": "India"
            },
            "team1": {
                "team": {
                    "id": 433,
                    "fullName": "Gujarat Lions",
                    "shortName": "Gujarat Lions",
                    "abbreviation": "GL",
                    "primaryColor": "E5BA0F",
                    "secondaryColor": "383838",
                    "type": "m",
                    "typeString": "m"
                }
            },
            "team2": {
                "team": {
                    "id": 3,
                    "fullName": "Delhi Daredevils",
                    "shortName": "Daredevils",
                    "abbreviation": "DD",
                    "primaryColor": "B22E2A",
                    "secondaryColor": "FFFFFF",
                    "type": "m",
                    "typeString": "m"
                }
            },
            "groupName": ""
        },
        {
            "matchId": {
                "id": 5889,
                "name": "ipl2017-51"
            },
            "description": "Match 51",
            "matchDate": "2017-05-11T20:00:00+0530",
            "matchType": "IPLT20",
            "matchState": "U",
            "venue": {
                "id": 4,
                "fullName": "Wankhede Stadium",
                "shortName": "Wankhede Stadium",
                "city": "Mumbai",
                "country": "India"
            },
            "team1": {
                "team": {
                    "id": 6,
                    "fullName": "Mumbai Indians",
                    "shortName": "Mumbai",
                    "abbreviation": "MI",
                    "primaryColor": "00AEEF",
                    "secondaryColor": "FFFFFF",
                    "type": "m",
                    "typeString": "m"
                }
            },
            "team2": {
                "team": {
                    "id": 4,
                    "fullName": "Kings XI Punjab",
                    "shortName": "Kings XI",
                    "abbreviation": "KXIP",
                    "primaryColor": "DA1F3D",
                    "secondaryColor": "FFFFFF",
                    "type": "m",
                    "typeString": "m"
                }
            },
            "groupName": ""
        },
        {
            "matchId": {
                "id": 5890,
                "name": "ipl2017-52"
            },
            "description": "Match 52",
            "matchDate": "2017-05-12T20:00:00+0530",
            "matchType": "IPLT20",
            "matchState": "U",
            "venue": {
                "id": 8,
                "fullName": "Feroz Shah Kotla Ground",
                "shortName": "Feroz Shah Kotla Ground",
                "city": "Delhi",
                "country": "India"
            },
            "team1": {
                "team": {
                    "id": 3,
                    "fullName": "Delhi Daredevils",
                    "shortName": "Daredevils",
                    "abbreviation": "DD",
                    "primaryColor": "B22E2A",
                    "secondaryColor": "FFFFFF",
                    "type": "m",
                    "typeString": "m"
                }
            },
            "team2": {
                "team": {
                    "id": 434,
                    "fullName": "Rising Pune Supergiant",
                    "shortName": "Supergiant",
                    "abbreviation": "RPS",
                    "primaryColor": "FFC0CB",
                    "secondaryColor": "AA3355",
                    "type": "m",
                    "typeString": "m"
                }
            },
            "groupName": ""
        },
        {
            "matchId": {
                "id": 5891,
                "name": "ipl2017-53"
            },
            "description": "Match 53",
            "matchDate": "2017-05-13T16:00:00+0530",
            "matchType": "IPLT20",
            "matchState": "U",
            "venue": {
                "id": 131,
                "fullName": "Green Park",
                "shortName": "Green Park",
                "city": "Kanpur",
                "country": "India"
            },
            "team1": {
                "team": {
                    "id": 433,
                    "fullName": "Gujarat Lions",
                    "shortName": "Gujarat Lions",
                    "abbreviation": "GL",
                    "primaryColor": "E5BA0F",
                    "secondaryColor": "383838",
                    "type": "m",
                    "typeString": "m"
                }
            },
            "team2": {
                "team": {
                    "id": 62,
                    "fullName": "Sunrisers Hyderabad",
                    "shortName": "Sunrisers",
                    "abbreviation": "SRH",
                    "primaryColor": "FF9C00",
                    "secondaryColor": "FFFFFF",
                    "type": "m",
                    "typeString": "m"
                }
            },
            "groupName": ""
        },
        {
            "matchId": {
                "id": 5892,
                "name": "ipl2017-54"
            },
            "description": "Match 54",
            "matchDate": "2017-05-13T20:00:00+0530",
            "matchType": "IPLT20",
            "matchState": "U",
            "venue": {
                "id": 2,
                "fullName": "Eden Gardens",
                "shortName": "Eden Gardens",
                "city": "Kolkata",
                "country": "India"
            },
            "team1": {
                "team": {
                    "id": 5,
                    "fullName": "Kolkata Knight Riders",
                    "shortName": "Knight Riders",
                    "abbreviation": "KKR",
                    "primaryColor": "6F2C91",
                    "secondaryColor": "FFFFFF",
                    "type": "m",
                    "typeString": "m"
                }
            },
            "team2": {
                "team": {
                    "id": 6,
                    "fullName": "Mumbai Indians",
                    "shortName": "Mumbai",
                    "abbreviation": "MI",
                    "primaryColor": "00AEEF",
                    "secondaryColor": "FFFFFF",
                    "type": "m",
                    "typeString": "m"
                }
            },
            "groupName": ""
        },
        {
            "matchId": {
                "id": 5893,
                "name": "ipl2017-55"
            },
            "description": "Match 55",
            "matchDate": "2017-05-14T16:00:00+0530",
            "matchType": "IPLT20",
            "matchState": "U",
            "venue": {
                "id": 7,
                "fullName": "Maharashtra Cricket Association's International Stadium",
                "shortName": "Maharashtra Cricket Association's International Stadium",
                "city": "Pune",
                "country": "India"
            },
            "team1": {
                "team": {
                    "id": 434,
                    "fullName": "Rising Pune Supergiant",
                    "shortName": "Supergiant",
                    "abbreviation": "RPS",
                    "primaryColor": "FFC0CB",
                    "secondaryColor": "AA3355",
                    "type": "m",
                    "typeString": "m"
                }
            },
            "team2": {
                "team": {
                    "id": 4,
                    "fullName": "Kings XI Punjab",
                    "shortName": "Kings XI",
                    "abbreviation": "KXIP",
                    "primaryColor": "DA1F3D",
                    "secondaryColor": "FFFFFF",
                    "type": "m",
                    "typeString": "m"
                }
            },
            "groupName": ""
        },
        {
            "matchId": {
                "id": 5894,
                "name": "ipl2017-56"
            },
            "description": "Match 56",
            "matchDate": "2017-05-14T20:00:00+0530",
            "matchType": "IPLT20",
            "matchState": "U",
            "venue": {
                "id": 8,
                "fullName": "Feroz Shah Kotla Ground",
                "shortName": "Feroz Shah Kotla Ground",
                "city": "Delhi",
                "country": "India"
            },
            "team1": {
                "team": {
                    "id": 3,
                    "fullName": "Delhi Daredevils",
                    "shortName": "Daredevils",
                    "abbreviation": "DD",
                    "primaryColor": "B22E2A",
                    "secondaryColor": "FFFFFF",
                    "type": "m",
                    "typeString": "m"
                }
            },
            "team2": {
                "team": {
                    "id": 9,
                    "fullName": "Royal Challengers Bangalore",
                    "shortName": "Challengers",
                    "abbreviation": "RCB",
                    "primaryColor": "D33F46",
                    "secondaryColor": "FFFFFF",
                    "type": "m",
                    "typeString": "m"
                }
            },
            "groupName": ""
        },
        {
            "matchId": {
                "id": 5895,
                "name": "ipl2017-57"
            },
            "description": "Qualifier 1",
            "matchDate": "2017-05-16T20:00:00+0530",
            "matchType": "IPLT20",
            "matchState": "U",
            "venue": {
                "id": 13,
                "fullName": "TBC",
                "shortName": "TBC",
                "city": "TBC",
                "country": "TBC"
            },
            "team1": {
                "team": {
                    "id": 445,
                    "fullName": "TBD",
                    "shortName": "TBD",
                    "abbreviation": "TBD",
                    "primaryColor": "FFFFFF",
                    "secondaryColor": "FFFFFF",
                    "placeholder": true
                }
            },
            "team2": {
                "team": {
                    "id": 445,
                    "fullName": "TBD",
                    "shortName": "TBD",
                    "abbreviation": "TBD",
                    "primaryColor": "FFFFFF",
                    "secondaryColor": "FFFFFF",
                    "placeholder": true
                }
            },
            "groupName": "Knockouts"
        },
        {
            "matchId": {
                "id": 5896,
                "name": "ipl2017-58"
            },
            "description": "Eliminator",
            "matchDate": "2017-05-17T20:00:00+0530",
            "matchType": "IPLT20",
            "matchState": "U",
            "venue": {
                "id": 13,
                "fullName": "TBC",
                "shortName": "TBC",
                "city": "TBC",
                "country": "TBC"
            },
            "team1": {
                "team": {
                    "id": 445,
                    "fullName": "TBD",
                    "shortName": "TBD",
                    "abbreviation": "TBD",
                    "primaryColor": "FFFFFF",
                    "secondaryColor": "FFFFFF",
                    "placeholder": true
                }
            },
            "team2": {
                "team": {
                    "id": 445,
                    "fullName": "TBD",
                    "shortName": "TBD",
                    "abbreviation": "TBD",
                    "primaryColor": "FFFFFF",
                    "secondaryColor": "FFFFFF",
                    "placeholder": true
                }
            },
            "groupName": "Knockouts"
        },
        {
            "matchId": {
                "id": 5897,
                "name": "ipl2017-59"
            },
            "description": "Qualifier 2",
            "matchDate": "2017-05-19T20:00:00+0530",
            "matchType": "IPLT20",
            "matchState": "U",
            "venue": {
                "id": 13,
                "fullName": "TBC",
                "shortName": "TBC",
                "city": "TBC",
                "country": "TBC"
            },
            "team1": {
                "team": {
                    "id": 445,
                    "fullName": "TBD",
                    "shortName": "TBD",
                    "abbreviation": "TBD",
                    "primaryColor": "FFFFFF",
                    "secondaryColor": "FFFFFF",
                    "placeholder": true
                }
            },
            "team2": {
                "team": {
                    "id": 445,
                    "fullName": "TBD",
                    "shortName": "TBD",
                    "abbreviation": "TBD",
                    "primaryColor": "FFFFFF",
                    "secondaryColor": "FFFFFF",
                    "placeholder": true
                }
            },
            "groupName": "Knockouts"
        },
        {
            "matchId": {
                "id": 5898,
                "name": "ipl2017-60"
            },
            "description": "Final",
            "matchDate": "2017-05-21T20:00:00+0530",
            "matchType": "IPLT20",
            "matchState": "U",
            "venue": {
                "id": 10,
                "fullName": "Rajiv Gandhi Intl. Cricket Stadium",
                "shortName": "Rajiv Gandhi Intl. Cricket Stadium",
                "city": "Hyderabad",
                "country": "India"
            },
            "team1": {
                "team": {
                    "id": 445,
                    "fullName": "TBD",
                    "shortName": "TBD",
                    "abbreviation": "TBD",
                    "primaryColor": "FFFFFF",
                    "secondaryColor": "FFFFFF",
                    "placeholder": true
                }
            },
            "team2": {
                "team": {
                    "id": 445,
                    "fullName": "TBD",
                    "shortName": "TBD",
                    "abbreviation": "TBD",
                    "primaryColor": "FFFFFF",
                    "secondaryColor": "FFFFFF",
                    "placeholder": true
                }
            },
            "groupName": "Knockouts"
        }
    ]
}